Take-home Exercise 6
…
The output data.frame is called edges_aggregated. A new field called
Weight has been added in edges_aggregated.

hide

edges_aggregated <- edges %>% 
  group_by(from,to) %>% 
  summarise(Weight = n()) %>% 
  filter(from!=to) %>% 
  filter(Weight > 1) %>% 
  ungroup()
edges_aggregated

# A tibble: 160,842 x 3
    from    to Weight
   <dbl> <dbl>  <int>
 1     0    27     14
 2     0    33     16
 3     0    37     20
 4     0    53     15
 5     0    72     16
 6     0   123     17
 7     0   226     16
 8     0   300     18
 9     0   316     34
10     0   341     17
# ... with 160,832 more rows
…
- The Edges Data

hide

edges_byWork <- edges %>% 
  group_by(from,to,when) %>% 
  summarise(Weight = n()) %>% 
  filter(from!=to) %>% 
  filter(Weight > 1) %>% 
  ungroup()
edges_byWork

# A tibble: 317,900 x 4
    from    to when        Weight
   <dbl> <dbl> <chr>        <int>
 1     0    27 Weekends         4
 2     0    27 Working-day     10
 3     0    33 Weekends         4
 4     0    33 Working-day     12
 5     0    37 Weekends         5
 6     0    37 Working-day     15
 7     0    53 Weekends         5
 8     0    53 Working-day     10
 9     0    72 Weekends         4
10     0    72 Working-day     12
# ... with 317,890 more rows
…
