Take-home Exercise 1
…
4.1 Data Wrangling

4.1.1 Data binning on age
variable

The following code shows how to perform data binning on the age
variable using the cut() function with specific break
marks:

part_age<- participants %>%
  mutate(ageGroup = cut(age, breaks = c(17,25,35,45,55,60)))
part_age

# A tibble: 1,011 x 8
   participantId householdSize haveKids   age educationLevel     
           <dbl>         <dbl> <lgl>    <dbl> <chr>              
 1             0             3 TRUE        36 HighSchoolOrCollege
 2             1             3 TRUE        25 HighSchoolOrCollege
 3             2             3 TRUE        35 HighSchoolOrCollege
 4             3             3 TRUE        21 HighSchoolOrCollege
 5             4             3 TRUE        43 Bachelors          
 6             5             3 TRUE        32 HighSchoolOrCollege
 7             6             3 TRUE        26 HighSchoolOrCollege
 8             7             3 TRUE        27 Bachelors          
 9             8             3 TRUE        20 Bachelors          
10             9             3 TRUE        35 Bachelors          
# ... with 1,001 more rows, and 3 more variables:
#   interestGroup <chr>, joviality <dbl>, ageGroup <fct>
…
