Take-home Exercise 5
…
It is always a good practice to examine the imported data frame
before further analysis is performed.

Lets take an overview of the datasets

print(buildings)

Simple feature collection with 1042 features and 4 fields
Geometry type: POLYGON
Dimension:     XY
Bounding box:  xmin: -4762.191 ymin: -30.08359 xmax: 2650 ymax: 7850.037
CRS:           NA
# A tibble: 1,042 x 5
   buildingId                       location buildingType maxOccupancy
   <chr>                           <POLYGON> <chr>        <chr>       
 1 1          ((350.0639 4595.666, 390.0633~ Commercial   ""          
 2 2          ((-1926.973 2725.611, -1948.1~ Residental   "12"        
 3 3          ((685.6846 1552.131, 645.9985~ Commercial   ""          
 4 4          ((-976.7845 4542.382, -1053.2~ Commercial   ""          
 5 5          ((1259.306 3572.727, 1299.255~ Residental   "2"         
 6 6          ((478.8969 1082.484, 473.6596~ Commercial   ""          
 7 7          ((-1920.823 615.7447, -1960.8~ Residental   ""          
 8 8          ((-3302.657 5394.354, -3301.5~ Commercial   ""          
 9 9          ((-600.5789 4429.228, -495.95~ Commercial   ""          
10 10         ((-68.75908 5379.924, -28.782~ Residental   "5"         
# ... with 1,032 more rows, and 1 more variable: units <chr>

print(apartments)

Simple feature collection with 1517 features and 5 fields
Geometry type: POINT
Dimension:     XY
Bounding box:  xmin: -4616.828 ymin: 22.16098 xmax: 2488.067 ymax: 7829.905
CRS:           NA
# A tibble: 1,517 x 6
   apartmentId rentalCost maxOccupancy numberOfRooms
   <chr>       <chr>      <chr>        <chr>        
 1 1           768.16     2            4            
 2 2           1014.55    2            1            
 3 3           1057.39    4            3            
 4 4           1259.1     4            3            
 5 5           411.5      1            4            
 6 6           859.58     3            2            
 7 7           982.11     3            4            
 8 8           980.05     4            1            
 9 9           433.45     1            3            
10 10          1104.33    3            4            
# ... with 1,507 more rows, and 2 more variables: location <POINT>,
#   buildingId <chr>

2.3 Data Wrangling

logs_selected <- read_rds("data/rds/logs_selected.rds")

print(logs_selected)

Simple feature collection with 244271 features and 13 fields
Geometry type: POINT
Dimension:     XY
Bounding box:  xmin: -4616.828 ymin: 35.4377 xmax: 2630 ymax: 7836.546
CRS:           NA
# A tibble: 244,271 x 14
   timestamp            currentLocation participantId currentMode
 * <chr>                        <POINT> <chr>         <chr>      
 1 2022-03-01T05:~  (-1613.47 1032.372) 651           Transport  
 2 2022-03-01T05:~  (-4586.943 7246.79) 683           Transport  
 3 2022-03-01T05:~ (-4583.826 7612.941) 728           Transport  
 4 2022-03-01T05:~ (-1318.575 1217.017) 651           Transport  
 5 2022-03-01T05:~ (-4219.829 7379.372) 683           Transport  
 6 2022-03-01T05:~ (-4317.212 7382.659) 728           Transport  
 7 2022-03-01T05:~  (-1171.728 1502.45) 651           Transport  
 8 2022-03-01T05:~  (-4186.85 6980.755) 683           Transport  
 9 2022-03-01T05:~ (-4199.135 7076.865) 728           Transport  
10 2022-03-01T05:~ (-3581.037 7172.023) 619           Transport  
# ... with 244,261 more rows, and 10 more variables:
#   hungerStatus <chr>, sleepStatus <chr>, apartmentId <chr>,
#   availableBalance <chr>, jobId <chr>, financialStatus <chr>,
#   dailyFoodBudget <chr>, weeklyExtraBudget <chr>, Timestamp <dttm>,
#   day <int>
…
