In-class Ex 06
…
Structure of a simple polygon feature data.frame

print(buildings)

Simple feature collection with 1042 features and 4 fields
Geometry type: POLYGON
Dimension:     XY
Bounding box:  xmin: -4762.191 ymin: -30.08359 xmax: 2650 ymax: 7850.037
CRS:           NA
# A tibble: 1,042 x 5
   buildingId                       location buildingType maxOccupancy
   <chr>                           <POLYGON> <chr>        <chr>       
 1 1          ((350.0639 4595.666, 390.0633~ Commercial   ""          
 2 2          ((-1926.973 2725.611, -1948.1~ Residental   "12"        
 3 3          ((685.6846 1552.131, 645.9985~ Commercial   ""          
 4 4          ((-976.7845 4542.382, -1053.2~ Commercial   ""          
 5 5          ((1259.306 3572.727, 1299.255~ Residental   "2"         
 6 6          ((478.8969 1082.484, 473.6596~ Commercial   ""          
 7 7          ((-1920.823 615.7447, -1960.8~ Residental   ""          
 8 8          ((-3302.657 5394.354, -3301.5~ Commercial   ""          
 9 9          ((-600.5789 4429.228, -495.95~ Commercial   ""          
10 10         ((-68.75908 5379.924, -28.782~ Residental   "5"         
# ... with 1,032 more rows, and 1 more variable: units <chr>
…
